{
    "relationships": [],
    "fields": [
        {
            "fieldId": 1,
            "fieldName": "description",
            "fieldType": "String",
            "fieldValidateRules": [
                "required"
            ]
        },
        {
            "fieldId": 2,
            "fieldName": "endpoint",
            "fieldType": "String",
            "fieldValidateRules": [
                "required"
            ]
        }
    ],
    "dto": "mapstruct",
    "service": "serviceImpl",
    "pagination": "pagination"
}